sim/openriscv_core_tb.vcd
$date
	Mon Dec 09 07:56:43 2019
$end
$version
	Icarus Verilog
$end
$timescale
	1ps
$end
$scope module openriscv_core_tb $end
$var wire 32 ! x26 [31:0] $end
$var wire 32 " x27 [31:0] $end
$var wire 32 # x3 [31:0] $end
$var reg 1 $ clk $end
$var reg 1 % rst $end
$var integer 32 & r [31:0] $end
$scope module u_openriscv_core $end
$var wire 1 $ clk $end
$var wire 1 % rst $end
$var wire 32 ' regs_rdata2_o [31:0] $end
$var wire 32 ( regs_rdata1_o [31:0] $end
$var wire 32 ) ram_pc_rdata_o [31:0] $end
$var wire 32 * ram_ex_rdata_o [31:0] $end
$var wire 1 + pc_re_o $end
$var wire 32 , pc_pc_o [31:0] $end
$var wire 32 - if_inst_o [31:0] $end
$var wire 32 . if_inst_addr_o [31:0] $end
$var wire 1 / id_sram_we_o $end
$var wire 1 0 id_sram_re_o $end
$var wire 1 1 id_reg_we_o $end
$var wire 5 2 id_reg_waddr_o [4:0] $end
$var wire 1 3 id_reg2_re_o $end
$var wire 5 4 id_reg2_raddr_o [4:0] $end
$var wire 1 5 id_reg1_re_o $end
$var wire 5 6 id_reg1_raddr_o [4:0] $end
$var wire 1 7 id_inst_valid_o $end
$var wire 32 8 id_inst_o [31:0] $end
$var wire 32 9 id_inst_addr_o [31:0] $end
$var wire 32 : ex_sram_wdata_o [31:0] $end
$var wire 32 ; ex_sram_waddr_o [31:0] $end
$var wire 32 < ex_sram_raddr_o [31:0] $end
$var wire 32 = ex_reg_wdata_o [31:0] $end
$var wire 1 > ex_jump_flag_o $end
$var wire 32 ? ex_jump_addr_o [31:0] $end
$scope module u_ex $end
$var wire 1 $ clk $end
$var wire 1 % rst $end
$var wire 32 @ sram_rdata_i [31:0] $end
$var wire 32 A sign_extend_tmp [31:0] $end
$var wire 5 B shift_bits [4:0] $end
$var wire 32 C reg2_rdata_i [31:0] $end
$var wire 32 D reg1_rdata_i [31:0] $end
$var wire 7 E opcode [6:0] $end
$var wire 1 7 inst_valid_i $end
$var wire 32 F inst_i [31:0] $end
$var wire 32 G inst_addr_i [31:0] $end
$var wire 3 H funct3 [2:0] $end
$var reg 32 I jump_addr_o [31:0] $end
$var reg 1 > jump_flag_o $end
$var reg 32 J reg_wdata_o [31:0] $end
$var reg 2 K sram_raddr_index [1:0] $end
$var reg 32 L sram_raddr_o [31:0] $end
$var reg 2 M sram_waddr_index [1:0] $end
$var reg 32 N sram_waddr_o [31:0] $end
$var reg 32 O sram_wdata_o [31:0] $end
$upscope $end
$scope module u_id $end
$var wire 1 $ clk $end
$var wire 1 > jump_flag_ex_i $end
$var wire 1 % rst $end
$var wire 5 P rs2 [4:0] $end
$var wire 5 Q rs1 [4:0] $end
$var wire 5 R rd [4:0] $end
$var wire 7 S opcode [6:0] $end
$var wire 32 T inst_i [31:0] $end
$var wire 32 U inst_addr_i [31:0] $end
$var wire 3 V funct3 [2:0] $end
$var reg 32 W inst_addr_o [31:0] $end
$var reg 32 X inst_o [31:0] $end
$var reg 1 7 inst_valid_o $end
$var reg 5 Y reg1_raddr_o [4:0] $end
$var reg 1 5 reg1_re_o $end
$var reg 5 Z reg2_raddr_o [4:0] $end
$var reg 1 3 reg2_re_o $end
$var reg 5 [ reg_waddr_o [4:0] $end
$var reg 1 1 reg_we_o $end
$var reg 1 0 sram_re_o $end
$var reg 1 / sram_we_o $end
$upscope $end
$scope module u_if_id $end
$var wire 1 $ clk $end
$var wire 1 > jump_flag_ex_i $end
$var wire 1 % rst $end
$var wire 32 \ inst_i [31:0] $end
$var wire 32 ] inst_addr_i [31:0] $end
$var reg 32 ^ inst_addr_o [31:0] $end
$var reg 32 _ inst_o [31:0] $end
$upscope $end
$scope module u_pc_reg $end
$var wire 1 $ clk $end
$var wire 32 ` jump_addr_ex_i [31:0] $end
$var wire 1 > jump_flag_ex_i $end
$var wire 1 % rst $end
$var reg 32 a offset [31:0] $end
$var reg 32 b pc_o [31:0] $end
$var reg 1 + re_o $end
$upscope $end
$scope module u_regs $end
$var wire 1 $ clk $end
$var wire 5 c raddr1 [4:0] $end
$var wire 5 d raddr2 [4:0] $end
$var wire 1 5 re1 $end
$var wire 1 3 re2 $end
$var wire 1 % rst $end
$var wire 5 e waddr [4:0] $end
$var wire 32 f wdata [31:0] $end
$var wire 1 1 we $end
$var reg 32 g rdata1 [31:0] $end
$var reg 32 h rdata2 [31:0] $end
$upscope $end
$scope module u_sim_ram $end
$var wire 1 $ clk $end
$var wire 32 i ex_raddr_i [31:0] $end
$var wire 1 0 ex_re_i $end
$var wire 32 j pc_raddr_i [31:0] $end
$var wire 1 + pc_re_i $end
$var wire 1 % rst $end
$var wire 32 k waddr_i [31:0] $end
$var wire 32 l wdata_i [31:0] $end
$var wire 1 / we_i $end
$var reg 32 m ex_rdata_o [31:0] $end
$var reg 32 n pc_rdata_o [31:0] $end
$upscope $end
$upscope $end
$upscope $end
$enddefinitions $end
#0
$dumpvars
b0 n
b0 m
bx l
bx k
bx j
bx i
b0 h
b0 g
bx f
bx e
bx d
bx c
bx b
bx a
bx `
bx _
bx ^
bx ]
b0 \
bx [
bx Z
bx Y
bx X
bx W
bx V
bx U
bx T
bx S
bx R
bx Q
bx P
bx O
bx N
bx M
bx L
bx K
bx J
bx I
bx H
bx G
bx F
bx E
b0 D
b0 C
bx B
bx A
b0 @
bx ?
x>
bx =
bx <
bx ;
bx :
bx 9
bx 8
x7
bx 6
x5
bx 4
x3
bx 2
x1
x0
x/
bx .
bx -
bx ,
x+
b0 *
b0 )
b0 (
b0 '
bx &
0%
0$
bx #
bx "
bx !
$end
#10000
b0 P
b0 Q
b0 R
b0 V
b0 S
b0 B
b0 A
b0 H
b0 E
b0 a
b0 ,
b0 ]
b0 b
b0 j
0+
b0 .
b0 U
b0 ^
b0 -
b0 T
b0 _
07
00
03
05
0/
01
b0 8
b0 F
b0 X
b0 M
b0 K
0>
b0 <
b0 L
b0 i
1$
#20000
0$
#30000
1$
#40000
0$
1%
#50000
b10000000000000000000100010011 )
b10000000000000000000100010011 \
b10000000000000000000100010011 n
b100 a
1+
b0 9
b0 G
b0 W
1$
#60000
0$
#70000
b110100010011 )
b110100010011 \
b110100010011 n
b10 R
b10011 S
b10000000000000000000100010011 -
b10000000000000000000100010011 T
b10000000000000000000100010011 _
b1000 a
b100 ,
b100 ]
b100 b
b100 j
1$
#80000
0$
#90000
b100000000 =
b100000000 J
b100000000 f
b110110010011 )
b110110010011 \
b110110010011 n
b11010 R
b100000000 A
b10011 E
b1100 a
b1000 ,
b1000 ]
b1000 b
b1000 j
b100 .
b100 U
b100 ^
b110100010011 -
b110100010011 T
b110100010011 _
b0 6
b0 Y
b0 c
15
b10 2
b10 [
b10 e
11
17
b10000000000000000000100010011 8
b10000000000000000000100010011 F
b10000000000000000000100010011 X
1$
#100000
0$
#110000
b0 =
b0 J
b0 f
b100110000000000000011101111 )
b100110000000000000011101111 \
b100110000000000000011101111 n
b0 A
b11011 R
b11010 2
b11010 [
b11010 e
b100 9
b100 G
b100 W
b110100010011 8
b110100010011 F
b110100010011 X
b1000 .
b1000 U
b1000 ^
b110110010011 -
b110110010011 T
b110110010011 _
b10000 a
b1100 ,
b1100 ]
b1100 b
b1100 j
1$
#120000
0$
#130000
b100000000110100010011 )
b100000000110100010011 \
b100000000110100010011 n
b1100 P
b1 R
b1101111 S
b10100 a
b10000 ,
b10000 ]
b10000 b
b10000 j
b0 !
b1100 .
b1100 U
b1100 ^
b100110000000000000011101111 -
b100110000000000000011101111 T
b100110000000000000011101111 _
b11011 2
b11011 [
b11011 e
b1000 9
b1000 G
b1000 W
b110110010011 8
b110110010011 F
b110110010011 X
1$
#140000
0$
#150000
b1011000 ?
b1011000 I
b1011000 `
1>
b10000 =
b10000 J
b10000 f
b1101111 )
b1101111 \
b1101111 n
b1100 B
b1001100 A
b1101111 E
b1 P
b11010 R
b10011 S
b1 2
b1 [
b1 e
b1100 9
b1100 G
b1100 W
b100110000000000000011101111 8
b100110000000000000011101111 F
b100110000000000000011101111 X
b10000 .
b10000 U
b10000 ^
b100000000110100010011 -
b100000000110100010011 T
b100000000110100010011 _
b0 "
b11000 a
b10100 ,
b10100 ]
b10100 b
b10100 j
1$
#160000
0$
#170000
0>
b11111110000000010000000100010011 )
b11111110000000010000000100010011 \
b11111110000000010000000100010011 n
b1100 ?
b1100 I
b1100 `
b0 P
b0 R
b1 S
b0 B
b0 A
b1 E
b1011100 a
b1011000 ,
b1011000 ]
b1011000 b
b1011000 j
b0 .
b0 U
b0 ^
b1 -
b1 T
b1 _
b1 8
b1 F
b1 X
01
1$
#180000
0$
#190000
b100010010111000100011 )
b100010010111000100011 \
b100010010111000100011 n
b10 Q
b10 R
b10011 S
b0 9
b0 G
b0 W
b1011000 .
b1011000 U
b1011000 ^
b11111110000000010000000100010011 -
b11111110000000010000000100010011 T
b11111110000000010000000100010011 _
b1100000 a
b1011100 ,
b1011100 ]
b1011100 b
b1011100 j
1$
#200000
0$
#210000
b11100000 =
b11100000 J
b11100000 f
b100000010010110000100011 )
b100000010010110000100011 \
b100000010010110000100011 n
b100000000 (
b100000000 D
b100000000 g
b1 P
b11100 R
b10 V
b100011 S
b11111111111111111111111111100000 A
b10011 E
b1100100 a
b1100000 ,
b1100000 ]
b1100000 b
b1100000 j
b1011100 .
b1011100 U
b1011100 ^
b100010010111000100011 -
b100010010111000100011 T
b100010010111000100011 _
b10 6
b10 Y
b10 c
b10 2
b10 [
b10 e
11
b1011000 9
b1011000 G
b1011000 W
b11111110000000010000000100010011 8
b11111110000000010000000100010011 F
b11111110000000010000000100010011 X
1$
#220000
0$
#230000
b10000 :
b10000 O
b10000 l
b11111100 ;
b11111100 N
b11111100 k
b100000001 =
b100000001 J
b100000001 f
b10000 '
b10000 C
b10000 h
b11100000 (
b11100000 D
b11100000 g
b10000000010000010000010011 )
b10000000010000010000010011 \
b10000000010000010000010011 n
b1 B
b1 A
b10 H
b100011 E
b1000 P
b11000 R
01
1/
b1 4
b1 Z
b1 d
13
b1011100 9
b1011100 G
b1011100 W
b100010010111000100011 8
b100010010111000100011 F
b100010010111000100011 X
b1100000 .
b1100000 U
b1100000 ^
b100000010010110000100011 -
b100000010010110000100011 T
b100000010010110000100011 _
b1101000 a
b1100100 ,
b1100100 ]
b1100100 b
b1100100 j
1$
#240000
0$
#250000
bx :
bx O
bx l
b11111110000001000010010000100011 )
b11111110000001000010010000100011 \
b11111110000001000010010000100011 n
bx '
bx C
bx h
b11111000 ;
b11111000 N
b11111000 k
b0 P
b1000 R
b0 V
b10011 S
b1000 B
b1000 A
b1101100 a
b1101000 ,
b1101000 ]
b1101000 b
b1101000 j
b1100100 .
b1100100 U
b1100100 ^
b10000000010000010000010011 -
b10000000010000010000010011 T
b10000000010000010000010011 _
b1000 4
b1000 Z
b1000 d
b1100000 9
b1100000 G
b1100000 W
b100000010010110000100011 8
b100000010010110000100011 F
b100000010010110000100011 X
1$
#260000
0$
#270000
b100000000 =
b100000000 J
b100000000 f
b100001000 ;
b100001000 N
b100001000 k
b11111110000001000010011000100011 )
b11111110000001000010011000100011 \
b11111110000001000010011000100011 n
b0 B
b100000 A
b0 H
b10011 E
b1000 Q
b10 V
b100011 S
0/
b1000 2
b1000 [
b1000 e
11
b1100100 9
b1100100 G
b1100100 W
b10000000010000010000010011 8
b10000000010000010000010011 F
b10000000010000010000010011 X
b1101000 .
b1101000 U
b1101000 ^
b11111110000001000010010000100011 -
b11111110000001000010010000100011 T
b11111110000001000010010000100011 _
b1110000 a
b1101100 ,
b1101100 ]
b1101100 b
b1101100 j
1$
#280000
0$
#290000
b0 :
b0 O
b0 l
b11101000 ;
b11101000 N
b11101000 k
b10000000000000000001101111 )
b10000000000000000001101111 \
b10000000000000000001101111 n
b0 '
b0 C
b0 h
b100000000 (
b100000000 D
b100000000 g
b11000000 =
b11000000 J
b11000000 f
b1100 R
b11111111111111111111111111100000 A
b10 H
b100011 E
b1110100 a
b1110000 ,
b1110000 ]
b1110000 b
b1110000 j
b1101100 .
b1101100 U
b1101100 ^
b11111110000001000010011000100011 -
b11111110000001000010011000100011 T
b11111110000001000010011000100011 _
01
1/
b0 4
b0 Z
b0 d
b1000 6
b1000 Y
b1000 c
b1101000 9
b1101000 G
b1101000 W
b11111110000001000010010000100011 8
b11111110000001000010010000100011 F
b11111110000001000010010000100011 X
1$
#300000
0$
#310000
b11101100 ;
b11101100 N
b11101100 k
b11111110100001000010011100000011 )
b11111110100001000010011100000011 \
b11111110100001000010011100000011 n
b0 Q
b0 R
b0 V
b1101111 S
b1101100 9
b1101100 G
b1101100 W
b11111110000001000010011000100011 8
b11111110000001000010011000100011 F
b11111110000001000010011000100011 X
b1110000 .
b1110000 U
b1110000 ^
b10000000000000000001101111 -
b10000000000000000001101111 T
b10000000000000000001101111 _
b1111000 a
b1110100 ,
b1110100 ]
b1110100 b
b1110100 j
1$
#320000
0$
#330000
b1110100 =
b1110100 J
b1110100 f
b10010000 ?
b10010000 I
b10010000 `
1>
b11111110110001000010011110000011 )
b11111110110001000010011110000011 \
b11111110110001000010011110000011 n
b100100000 ;
b100100000 N
b100100000 k
b1000 P
b1000 Q
b1110 R
b10 V
b11 S
b100000 A
b0 H
b1101111 E
b1111100 a
b1111000 ,
b1111000 ]
b1111000 b
b1111000 j
b1110100 .
b1110100 U
b1110100 ^
b11111110100001000010011100000011 -
b11111110100001000010011100000011 T
b11111110100001000010011100000011 _
b0 2
b0 [
b0 e
11
0/
b1110000 9
b1110000 G
b1110000 W
b10000000000000000001101111 8
b10000000000000000001101111 F
b10000000000000000001101111 X
1$
#340000
0$
#350000
0>
b1110000 ?
b1110000 I
b1110000 `
b11111110110001000010011100000011 )
b11111110110001000010011100000011 \
b11111110110001000010011100000011 n
b0 A
b1 E
b0 P
b0 Q
b0 R
b0 V
b1 S
b1 8
b1 F
b1 X
01
b0 .
b0 U
b0 ^
b1 -
b1 T
b1 _
b10010100 a
b10010000 ,
b10010000 ]
b10010000 b
b10010000 j
1$
#360000
0$
#370000
b110010000000000011110010011 )
b110010000000000011110010011 \
b110010000000000011110010011 n
b1100 P
b1000 Q
b1110 R
b10 V
b11 S
b10011000 a
b10010100 ,
b10010100 ]
b10010100 b
b10010100 j
b10010000 .
b10010000 U
b10010000 ^
b11111110110001000010011100000011 -
b11111110110001000010011100000011 T
b11111110110001000010011100000011 _
b0 9
b0 G
b0 W
1$
#380000
0$
#390000
b0 =
b0 J
b0 f
b11101100 <
b11101100 L
b11101100 i
b0 *
b0 @
b0 m
b11111100111001111101111011100011 )
b11111100111001111101111011100011 \
b11111100111001111101111011100011 n
b1100 B
b11111111111111111111111111101100 A
b10 H
b11 E
b100 P
b0 Q
b1111 R
b0 V
b10011 S
10
b1110 2
b1110 [
b1110 e
11
b10010000 9
b10010000 G
b10010000 W
b11111110110001000010011100000011 8
b11111110110001000010011100000011 F
b11111110110001000010011100000011 X
b10010100 .
b10010100 U
b10010100 ^
b110010000000000011110010011 -
b110010000000000011110010011 T
b110010000000000011110010011 _
b10011100 a
b10011000 ,
b10011000 ]
b10011000 b
b10011000 j
1$
#400000
0$
#410000
bx *
bx @
bx m
b1100100 =
b1100100 J
b1100100 f
b11111110100001000010011100000011 )
b11111110100001000010011100000011 \
b11111110100001000010011100000011 n
b0 (
b0 D
b0 g
b101100100 <
b101100100 L
b101100100 i
b1110 P
b1111 Q
b11101 R
b101 V
b1100011 S
b100 B
b1100100 A
b0 H
b10011 E
b10100000 a
b10011100 ,
b10011100 ]
b10011100 b
b10011100 j
b10011000 .
b10011000 U
b10011000 ^
b11111100111001111101111011100011 -
b11111100111001111101111011100011 T
b11111100111001111101111011100011 _
b0 6
b0 Y
b0 c
b1111 2
b1111 [
b1111 e
b10010100 9
b10010100 G
b10010100 W
b110010000000000011110010011 8
b110010000000000011110010011 F
b110010000000000011110010011 X
1$
#420000
0$
#430000
b1110100 ?
b1110100 I
b1110100 `
1>
b11111111111111111111111111001110 =
b11111111111111111111111111001110 J
b11111111111111111111111111001110 f
b1100100 (
b1100100 D
b1100100 g
b1011110110111 )
b1011110110111 \
b1011110110111 n
b1110 B
b11111111111111111111111111001110 A
b101 H
b1100011 E
b1000 P
b1000 Q
b1110 R
b10 V
b11 S
01
b1110 4
b1110 Z
b1110 d
b1111 6
b1111 Y
b1111 c
b10011000 9
b10011000 G
b10011000 W
b11111100111001111101111011100011 8
b11111100111001111101111011100011 F
b11111100111001111101111011100011 X
b10011100 .
b10011100 U
b10011100 ^
b11111110100001000010011100000011 -
b11111110100001000010011100000011 T
b11111110100001000010011100000011 _
b10100100 a
b10100000 ,
b10100000 ]
b10100000 b
b10100000 j
1$
#440000
0$
#450000
0>
b11111110100001000010011100000011 )
b11111110100001000010011100000011 \
b11111110100001000010011100000011 n
b10011000 ?
b10011000 I
b10011000 `
b0 P
b0 Q
b0 R
b0 V
b1 S
b0 B
b0 A
b0 H
b1 E
b1111000 a
b1110100 ,
b1110100 ]
b1110100 b
b1110100 j
b0 .
b0 U
b0 ^
b1 -
b1 T
b1 _
b1 8
b1 F
b1 X
1$
#460000
0$
#470000
b11111110110001000010011110000011 )
b11111110110001000010011110000011 \
b11111110110001000010011110000011 n
b1000 P
b1000 Q
b1110 R
b10 V
b11 S
b0 9
b0 G
b0 W
b1110100 .
b1110100 U
b1110100 ^
b11111110100001000010011100000011 -
b11111110100001000010011100000011 T
b11111110100001000010011100000011 _
b1111100 a
b1111000 ,
b1111000 ]
b1111000 b
b1111000 j
1$
#480000
0$
#490000
b0 *
b0 @
b0 m
b0 =
b0 J
b0 f
b11101000 <
b11101000 L
b11101000 i
b111101110000011110110011 )
b111101110000011110110011 \
b111101110000011110110011 n
b100000000 (
b100000000 D
b100000000 g
b1100 P
b1111 R
b1000 B
b11111111111111111111111111101000 A
b10 H
b11 E
b10000000 a
b1111100 ,
b1111100 ]
b1111100 b
b1111100 j
b1111000 .
b1111000 U
b1111000 ^
b11111110110001000010011110000011 -
b11111110110001000010011110000011 T
b11111110110001000010011110000011 _
b1110 2
b1110 [
b1110 e
11
b1000 6
b1000 Y
b1000 c
b1110100 9
b1110100 G
b1110100 W
b11111110100001000010011100000011 8
b11111110100001000010011100000011 F
b11111110100001000010011100000011 X
1$
#500000
0$
#510000
b11101100 <
b11101100 L
b11101100 i
b11111110111101000010010000100011 )
b11111110111101000010010000100011 \
b11111110111101000010010000100011 n
b1100 B
b11111111111111111111111111101100 A
b1111 P
b1110 Q
b0 V
b110011 S
b1111 2
b1111 [
b1111 e
b1111000 9
b1111000 G
b1111000 W
b11111110110001000010011110000011 8
b11111110110001000010011110000011 F
b11111110110001000010011110000011 X
b1111100 .
b1111100 U
b1111100 ^
b111101110000011110110011 -
b111101110000011110110011 T
b111101110000011110110011 _
b10000100 a
b10000000 ,
b10000000 ]
b10000000 b
b10000000 j
1$
#520000
0$
#530000
bx *
bx @
bx m
b0 =
b0 J
b0 f
b11111110110001000010011110000011 )
b11111110110001000010011110000011 \
b11111110110001000010011110000011 n
b0 (
b0 D
b0 g
b11 K
b100001111 <
b100001111 L
b100001111 i
b1000 Q
b1000 R
b10 V
b100011 S
b1111 B
b1111 A
b0 H
b110011 E
b10001000 a
b10000100 ,
b10000100 ]
b10000100 b
b10000100 j
b10000000 .
b10000000 U
b10000000 ^
b11111110111101000010010000100011 -
b11111110111101000010010000100011 T
b11111110111101000010010000100011 _
b1111 4
b1111 Z
b1111 d
b1110 6
b1110 Y
b1110 c
b1111100 9
b1111100 G
b1111100 W
b111101110000011110110011 8
b111101110000011110110011 F
b111101110000011110110011 X
1$
#540000
0$
#550000
b11101000 ;
b11101000 N
b11101000 k
b100000000 (
b100000000 D
b100000000 g
b101111000011110010011 )
b101111000011110010011 \
b101111000011110010011 n
b11111111111111111111111111101111 A
b10 H
b100011 E
b1100 P
b1111 R
b11 S
01
1/
b1000 6
b1000 Y
b1000 c
b10000000 9
b10000000 G
b10000000 W
b11111110111101000010010000100011 8
b11111110111101000010010000100011 F
b11111110111101000010010000100011 X
b10000100 .
b10000100 U
b10000100 ^
b11111110110001000010011110000011 -
b11111110110001000010011110000011 T
b11111110110001000010011110000011 _
b10001100 a
b10001000 ,
b10001000 ]
b10001000 b
b10001000 j
1$
#560000
0$
#570000
b0 *
b0 @
b0 m
b0 =
b0 J
b0 f
b0 K
b11101100 <
b11101100 L
b11101100 i
b11111110111101000010011000100011 )
b11111110111101000010011000100011 \
b11111110111101000010011000100011 n
b11101111 ;
b11101111 N
b11101111 k
b1 P
b1111 Q
b0 V
b10011 S
b1100 B
b11111111111111111111111111101100 A
b11 E
b10010000 a
b10001100 ,
b10001100 ]
b10001100 b
b10001100 j
b10001000 .
b10001000 U
b10001000 ^
b101111000011110010011 -
b101111000011110010011 T
b101111000011110010011 _
0/
11
b10000100 9
b10000100 G
b10000100 W
b11111110110001000010011110000011 8
b11111110110001000010011110000011 F
b11111110110001000010011110000011 X
1$
#580000
0$
#590000
bx *
bx @
bx m
b1 =
b1 J
b1 f
b0 (
b0 D
b0 g
b1 K
b100000001 <
b100000001 L
b100000001 i
b11111110110001000010011100000011 )
b11111110110001000010011100000011 \
b11111110110001000010011100000011 n
b1 B
b1 A
b0 H
b10011 E
b1111 P
b1000 Q
b1100 R
b10 V
b100011 S
b1111 6
b1111 Y
b1111 c
b10001000 9
b10001000 G
b10001000 W
b101111000011110010011 8
b101111000011110010011 F
b101111000011110010011 X
b10001100 .
b10001100 U
b10001100 ^
b11111110111101000010011000100011 -
b11111110111101000010011000100011 T
b11111110111101000010011000100011 _
b10010100 a
b10010000 ,
b10010000 ]
b10010000 b
b10010000 j
1$
#600000
0$
#610000
b1 :
b1 O
b1 l
b11101100 ;
b11101100 N
b11101100 k
b110010000000000011110010011 )
b110010000000000011110010011 \
b110010000000000011110010011 n
b1 '
b1 C
b1 h
b100000000 (
b100000000 D
b100000000 g
b11111111111111111111111111101111 =
b11111111111111111111111111101111 J
b11111111111111111111111111101111 f
b1100 P
b1110 R
b11 S
b1111 B
b11111111111111111111111111101111 A
b10 H
b100011 E
b10011000 a
b10010100 ,
b10010100 ]
b10010100 b
b10010100 j
b10010000 .
b10010000 U
b10010000 ^
b11111110110001000010011100000011 -
b11111110110001000010011100000011 T
b11111110110001000010011100000011 _
01
1/
b1000 6
b1000 Y
b1000 c
b10001100 9
b10001100 G
b10001100 W
b11111110111101000010011000100011 8
b11111110111101000010011000100011 F
b11111110111101000010011000100011 X
1$
#620000
0$
#630000
b1 *
b1 @
b1 m
b1 =
b1 J
b1 f
b0 K
b11101100 <
b11101100 L
b11101100 i
b11101110 ;
b11101110 N
b11101110 k
b11111100111001111101111011100011 )
b11111100111001111101111011100011 \
b11111100111001111101111011100011 n
b1100 B
b11111111111111111111111111101100 A
b11 E
b100 P
b0 Q
b1111 R
b0 V
b10011 S
0/
b1110 2
b1110 [
b1110 e
11
b10010000 9
b10010000 G
b10010000 W
b11111110110001000010011100000011 8
b11111110110001000010011100000011 F
b11111110110001000010011100000011 X
b10010100 .
b10010100 U
b10010100 ^
b110010000000000011110010011 -
b110010000000000011110010011 T
b110010000000000011110010011 _
b10011100 a
b10011000 ,
b10011000 ]
b10011000 b
b10011000 j
1$
#640000
0$
#650000
bx *
bx @
bx m
b1100100 =
b1100100 J
b1100100 f
b11111110100001000010011100000011 )
b11111110100001000010011100000011 \
b11111110100001000010011100000011 n
b0 (
b0 D
b0 g
b101100100 <
b101100100 L
b101100100 i
b1110 P
b1111 Q
b11101 R
b101 V
b1100011 S
b100 B
b1100100 A
b0 H
b10011 E
b10100000 a
b10011100 ,
b10011100 ]
b10011100 b
b10011100 j
b10011000 .
b10011000 U
b10011000 ^
b11111100111001111101111011100011 -
b11111100111001111101111011100011 T
b11111100111001111101111011100011 _
b0 6
b0 Y
b0 c
b1111 2
b1111 [
b1111 e
b10010100 9
b10010100 G
b10010100 W
b110010000000000011110010011 8
b110010000000000011110010011 F
b110010000000000011110010011 X
1$
#660000
0$
#670000
b1110100 ?
b1110100 I
b1110100 `
1>
b11111111111111111111111111001110 =
b11111111111111111111111111001110 J
b11111111111111111111111111001110 f
b1100100 (
b1100100 D
b1100100 g
b1011110110111 )
b1011110110111 \
b1011110110111 n
b1110 B
b11111111111111111111111111001110 A
b101 H
b1100011 E
b1000 P
b1000 Q
b1110 R
b10 V
b11 S
01
b1110 4
b1110 Z
b1110 d
b1111 6
b1111 Y
b1111 c
b10011000 9
b10011000 G
b10011000 W
b11111100111001111101111011100011 8
b11111100111001111101111011100011 F
b11111100111001111101111011100011 X
b10011100 .
b10011100 U
b10011100 ^
b11111110100001000010011100000011 -
b11111110100001000010011100000011 T
b11111110100001000010011100000011 _
b10100100 a
b10100000 ,
b10100000 ]
b10100000 b
b10100000 j
1$
#680000
0$
#690000
0>
b11111110100001000010011100000011 )
b11111110100001000010011100000011 \
b11111110100001000010011100000011 n
b10011000 ?
b10011000 I
b10011000 `
b0 P
b0 Q
b0 R
b0 V
b1 S
b0 B
b0 A
b0 H
b1 E
b1111000 a
b1110100 ,
b1110100 ]
b1110100 b
b1110100 j
b0 .
b0 U
b0 ^
b1 -
b1 T
b1 _
b1 8
b1 F
b1 X
1$
#700000
0$
#710000
b11111110110001000010011110000011 )
b11111110110001000010011110000011 \
b11111110110001000010011110000011 n
b1000 P
b1000 Q
b1110 R
b10 V
b11 S
b0 9
b0 G
b0 W
b1110100 .
b1110100 U
b1110100 ^
b11111110100001000010011100000011 -
b11111110100001000010011100000011 T
b11111110100001000010011100000011 _
b1111100 a
b1111000 ,
b1111000 ]
b1111000 b
b1111000 j
1$
#720000
0$
#730000
b0 *
b0 @
b0 m
b0 =
b0 J
b0 f
b11101000 <
b11101000 L
b11101000 i
b111101110000011110110011 )
b111101110000011110110011 \
b111101110000011110110011 n
b100000000 (
b100000000 D
b100000000 g
b1100 P
b1111 R
b1000 B
b11111111111111111111111111101000 A
b10 H
b11 E
b10000000 a
b1111100 ,
b1111100 ]
b1111100 b
b1111100 j
b1111000 .
b1111000 U
b1111000 ^
b11111110110001000010011110000011 -
b11111110110001000010011110000011 T
b11111110110001000010011110000011 _
b1110 2
b1110 [
b1110 e
11
b1000 6
b1000 Y
b1000 c
b1110100 9
b1110100 G
b1110100 W
b11111110100001000010011100000011 8
b11111110100001000010011100000011 F
b11111110100001000010011100000011 X
1$
#740000
0$
#750000
b1 =
b1 J
b1 f
b1 *
b1 @
b1 m
b11101100 <
b11101100 L
b11101100 i
b0 '
b0 C
b0 h
b11111110111101000010010000100011 )
b11111110111101000010010000100011 \
b11111110111101000010010000100011 n
b1100 B
b11111111111111111111111111101100 A
b1111 P
b1110 Q
b0 V
b110011 S
b1111 2
b1111 [
b1111 e
b1111000 9
b1111000 G
b1111000 W
b11111110110001000010011110000011 8
b11111110110001000010011110000011 F
b11111110110001000010011110000011 X
b1111100 .
b1111100 U
b1111100 ^
b111101110000011110110011 -
b111101110000011110110011 T
b111101110000011110110011 _
b10000100 a
b10000000 ,
b10000000 ]
b10000000 b
b10000000 j
1$
#760000
0$
#770000
bx *
bx @
bx m
b1 =
b1 J
b1 f
b11111110110001000010011110000011 )
b11111110110001000010011110000011 \
b11111110110001000010011110000011 n
b1 '
b1 C
b1 h
b0 (
b0 D
b0 g
b11 K
b100001111 <
b100001111 L
b100001111 i
b1000 Q
b1000 R
b10 V
b100011 S
b1111 B
b1111 A
b0 H
b110011 E
b10001000 a
b10000100 ,
b10000100 ]
b10000100 b
b10000100 j
b10000000 .
b10000000 U
b10000000 ^
b11111110111101000010010000100011 -
b11111110111101000010010000100011 T
b11111110111101000010010000100011 _
b1111 4
b1111 Z
b1111 d
b1110 6
b1110 Y
b1110 c
b1111100 9
b1111100 G
b1111100 W
b111101110000011110110011 8
b111101110000011110110011 F
b111101110000011110110011 X
1$
#780000
0$
#790000
b11101000 ;
b11101000 N
b11101000 k
b100000000 (
b100000000 D
b100000000 g
b11111111111111111111111111111111 =
b11111111111111111111111111111111 J
b11111111111111111111111111111111 f
b101111000011110010011 )
b101111000011110010011 \
b101111000011110010011 n
b11111111111111111111111111101111 A
b10 H
b100011 E
b1100 P
b1111 R
b11 S
01
1/
b1000 6
b1000 Y
b1000 c
b10000000 9
b10000000 G
b10000000 W
b11111110111101000010010000100011 8
b11111110111101000010010000100011 F
b11111110111101000010010000100011 X
b10000100 .
b10000100 U
b10000100 ^
b11111110110001000010011110000011 -
b11111110110001000010011110000011 T
b11111110110001000010011110000011 _
b10001100 a
b10001000 ,
b10001000 ]
b10001000 b
b10001000 j
1$
#800000
0$
#810000
b1 *
b1 @
b1 m
b1 =
b1 J
b1 f
b0 K
b11101100 <
b11101100 L
b11101100 i
b11111110111101000010011000100011 )
b11111110111101000010011000100011 \
b11111110111101000010011000100011 n
b11101111 ;
b11101111 N
b11101111 k
b1 P
b1111 Q
b0 V
b10011 S
b1100 B
b11111111111111111111111111101100 A
b11 E
b10010000 a
b10001100 ,
b10001100 ]
b10001100 b
b10001100 j
b10001000 .
b10001000 U
b10001000 ^
b101111000011110010011 -
b101111000011110010011 T
b101111000011110010011 _
0/
11
b10000100 9
b10000100 G
b10000100 W
b11111110110001000010011110000011 8
b11111110110001000010011110000011 F
b11111110110001000010011110000011 X
1$
#820000
0$
